…
# Run NicheNet ligand activity prediction
ligand_activities <- predict_ligand_activities(geneset = geneset_oi,
                                               background_expressed_genes = background_expressed_genes,
                                               ligand_target_matrix = ligand_target_matrix,
                                               potential_ligands = potential_ligands)

ligand_activities <- ligand_activities %>% 
  arrange(-aupr_corrected) %>% 
  mutate(rank = rank(dplyr::desc(aupr_corrected)))

ligand_activities
# A tibble: 99 × 6
#   test_ligand auroc  aupr aupr_corrected pearson  rank
#   <chr>       <dbl> <dbl>          <dbl>   <dbl> <dbl>
# 1 ADM         0.598 0.219         0.0849  0.120      4
# 2 ANG         0.604 0.208         0.0745  0.120      6
# 3 BMP4        0.586 0.202         0.0683  0.107     19
# 4 OCLN        0.595 0.199         0.0652  0.122     27
# 5 S100A4      0.591 0.199         0.0651  0.117     28
# 6 ADAM9       0.582 0.199         0.0645  0.105     31
# 7 TIMP1       0.586 0.197         0.0632  0.0955    42
# 8 ITM2B       0.585 0.197         0.0631  0.0959    44
# 9 EFNA1       0.588 0.197         0.0631  0.111     45
#10 CDCP1       0.579 0.196         0.0621  0.108     53
# ℹ 89 more rows
# ℹ Use `print(n = ...)` to see more rows
…
